Validating Community Assembly Rules Project Data • collaboratR
…
print(test_file_names)
#> [1] "../L0/biomass_747.csv" "../L0/env_747.csv"

Try to read the CSV back in

test_df <- read_data_csv(test_file_names[1], spec.df = commassembly_rules_biomass_str)
test_df
#> # A tibble: 48 × 33
#>    spp_who spp_date   ID_new source  external_trt trt_type    reponse_var site 
#>    <chr>   <chr>       <int> <chr>   <fct>        <fct>       <fct>       <chr>
#>  1 AMB     25/10/2024    747 Table 1 CO2          alone       biomass     main 
#>  2 AMB     25/10/2024    747 Table 1 CO2          alone       biomass     main 
#>  3 AMB     25/10/2024    747 Table 1 CO2          alone       biomass     main 
#>  4 AMB     25/10/2024    747 Table 1 CO2          alone       biomass     main 
#>  5 AMB     25/10/2024    747 Table 1 CO2          mixture     biomass     main 
#>  6 AMB     25/10/2024    747 Table 1 CO2          mixture     biomass     main 
#>  7 AMB     25/10/2024    747 Table 1 CO2          mixture     biomass     main 
#>  8 AMB     25/10/2024    747 Table 1 CO2          mixture     biomass     main 
#>  9 AMB     25/10/2024    747 Table 1 CO2          monoculture biomass     main 
#> 10 AMB     25/10/2024    747 Table 1 CO2          monoculture biomass     main 
#> # ℹ 38 more rows
#> # ℹ 25 more variables: spp_biomass <fct>, f_spp_name <fct>, f_nat_inv <fct>,
#> #   f_num_indiv <dbl>, c_spp_name <fct>, c_nat_inv <fct>, c_num_indiv <dbl>,
#> #   biomass_type <fct>, response_mean <dbl>, response_transformation <chr>,
#> #   response_mean_unit <fct>, response_var <dbl>, response_var_unit <fct>,
#> #   sample_size <dbl>, nutrient_general <fct>, nutrient_compound <fct>,
#> #   nutrient1_mean <chr>, nutrient2_mean <chr>, nutrient3_mean <chr>, …
…
